…
    summultibridge<-
      lapply(multibridgelist, function(x){
        x%>%
          mutate(ADT_029 = as.numeric(ADT_029),VERT_CLR_OVER_MT_053 = as.numeric(VERT_CLR_OVER_MT_053),
                 MAIN_UNIT_SPANS_045 = as.numeric(MAIN_UNIT_SPANS_045),fips = paste0(STATE_CODE_001,COUNTY_CODE_003))%>%
          group_by(fips)%>%
          summarise(countyADT=mean(ADT_029),verticalclearance = mean(VERT_CLR_OVER_MT_053),spans = mean(MAIN_UNIT_SPANS_045))
      })

    #2018 bridge data(WI, MI, CA, NY, TX) with desired prdictor
    multibridge18<-summultibridge[["2018HwyBridgesDelimitedAllStates"]]
    multibridge18

    ## # A tibble: 527 x 4
    ##    fips  countyADT verticalclearance spans
    ##    <chr>     <dbl>             <dbl> <dbl>
    ##  1 06         642.             100.   3   
    ##  2 06001    55829.              95.9  4.46
    ##  3 06003     1130.             100.   1.44
    ##  4 06005     3644.             100.   2.28
    ##  5 06007     5131.              98.9  3.16
    ##  6 06009     2178.              99.1  2.30
    ##  7 06011     3456.              99.4  2.67
    ##  8 06013    31386.              98.0  2.96
    ##  9 06015     1912.              99.0  2.57
    ## 10 06017     7852.              98.4  1.80
    ## # … with 517 more rows
…
